<?xml version="1.0" standalone="no"?>
<!DOCTYPE svg PUBLIC "-//W3C//DTD SVG 1.1//EN" "http://www.w3.org/Graphics/SVG/1.1/DTD/svg11.dtd">
<svg xmlns="http://www.w3.org/2000/svg">
<metadata>Copyright (C) 2014 by original authors @ fontello.com</metadata>
<defs>
<font id="wechat" horiz-adv-x="1000" >
<font-face font-family="wechat" font-weight="400" font-stretch="normal" units-per-em="1000" ascent="850" descent="-150" />
<missing-glyph horiz-adv-x="1000" />
<glyph glyph-name="picasa" unicode="&#xe801;" d="m250 760q10-12 158-144l-396-362q-12 48-12 96q0 130 67 240t183 170z m400 10l0-278l-328 296q64 22 138 22q98 0 190-40z m70-40q94-64 147-165t53-215q0-80-26-152l-174 0l0 532z m-686-550q12 12 66 60l102 92l0-362q-116 80-168 210z m238-250l0 198l590 0q-56-100-151-163t-209-75l-84 0q-84 10-146 40z" horiz-adv-x="920" />
<glyph glyph-name="chat" unicode="&#xe800;" d="m0 480q0 107 68 199t186 145t255 53q104 0 198-32t162-84t108-127t41-155q0-64-26-125t-73-110t-109-85t-140-57t-161-20q-103 0-194 30l-116-81q-65-42-91-25t-11 97l23 121q-57 53-88 119t-32 136z m650-468q118 23 215 82t158 145t75 186q89-35 142-102t54-147q0-49-22-96t-62-83l17-86q10-55-8-67t-64 17l-82 57q-63-21-136-21q-87 0-163 31t-124 84z" horiz-adv-x="1294.4" />
</font>
</defs>
</svg>